<svg width="164" height="164" viewBox="0 0 164 164" fill="none" xmlns="http://www.w3.org/2000/svg">
<g clip-path="url(#clip0_1003_18294)">
<path d="M82 161.043C125.341 161.043 160.477 125.908 160.477 82.5669C160.477 39.2255 125.341 4.09035 82 4.09035C38.6586 4.09035 3.52344 39.2255 3.52344 82.5669C3.52344 125.908 38.6586 161.043 82 161.043Z" fill="#8379C1"/>
<path d="M138.66 97.8746C139.975 92.994 140.681 87.8632 140.681 82.5669C140.681 50.1564 114.407 23.8824 81.997 23.8824C49.5865 23.8824 23.3125 50.1561 23.3125 82.5669C23.3125 87.8632 24.0181 92.994 25.3337 97.8746H138.66Z" fill="#6E61B6"/>
<path d="M61.3569 39.5854C52.5566 37.5739 45.9687 29.6874 45.9687 20.2866V15.234H57.4731V10.109H53.809C53.1024 10.109 52.5278 9.53434 52.5278 8.82773H44.6337C41.8374 8.82773 39.5625 11.1029 39.5625 13.8989V20.2866C39.5625 34.7372 51.3189 46.4936 65.7698 46.4936H65.8595C64.1023 44.3693 62.5926 42.0521 61.3569 39.5854Z" fill="#FAC600"/>
<path d="M119.358 8.82773H111.464C111.464 9.53434 110.89 10.109 110.183 10.109H106.519V15.234H118.024V20.2866C118.024 29.6878 111.436 37.5739 102.635 39.5854C101.4 42.0521 99.89 44.3693 98.1328 46.4936H98.2225C112.673 46.4936 124.43 34.7372 124.43 20.2866V13.8989C124.43 11.1026 122.155 8.82773 119.358 8.82773Z" fill="#FAC600"/>
<path d="M86.8551 65.523V55.6142C85.8355 56.1468 84.7881 56.6408 83.707 57.0828C83.1619 57.3057 82.5869 57.4191 81.9978 57.4191C81.4088 57.4191 80.8338 57.3057 80.2887 57.0828C79.2076 56.6408 78.1602 56.1468 77.1406 55.6142V65.523H86.8551Z" fill="#FAC600"/>
<path d="M57.1562 10.109V23.1162C57.1562 38.6024 66.6705 51.8588 80.1697 57.3797C81.3427 57.8596 82.6576 57.8596 83.8306 57.3797C97.3298 51.8588 106.844 38.6024 106.844 23.1162V10.109H57.1562Z" fill="#FEE45A"/>
<path d="M64.2733 23.1159V10.109H57.1562V23.1162C57.1562 38.6024 66.6705 51.8588 80.1697 57.3797C81.3427 57.8596 82.6576 57.8596 83.8306 57.3797C84.4161 57.1401 84.9933 56.8849 85.5632 56.6161C72.9864 50.7041 64.2733 37.9332 64.2733 23.1159Z" fill="#FEDF30"/>
<path d="M110.18 10.4293H53.8047C52.9203 10.4293 52.2031 9.71216 52.2031 8.82778V4.55833C52.2031 3.67395 52.9203 2.95677 53.8047 2.95677H110.18C111.064 2.95677 111.781 3.67395 111.781 4.55833V8.82778C111.781 9.71216 111.064 10.4293 110.18 10.4293Z" fill="#FEDF30"/>
<path d="M65.0156 8.82776V4.558C65.0156 3.67362 65.7328 2.95644 66.6172 2.95644H53.8047C52.9203 2.95644 52.2031 3.67362 52.2031 4.558V8.82776C52.2031 9.71215 52.9203 10.4293 53.8047 10.4293H66.6172C65.7328 10.4293 65.0156 9.71215 65.0156 8.82776Z" fill="#FED402"/>
<path d="M99.6172 89.2262V68.4059C99.6172 66.6368 98.1831 65.2028 96.4141 65.2028H67.5859C65.8169 65.2028 64.3828 66.6368 64.3828 68.4059V89.2262H99.6172Z" fill="#FEDF30"/>
<path d="M74.6328 89.2262V68.4059C74.6328 66.6368 76.0669 65.2028 77.8359 65.2028H67.5859C65.8169 65.2028 64.3828 66.6368 64.3828 68.4059V89.2262H74.6328Z" fill="#FED402"/>
<path d="M105.703 97.8746V92.109C105.703 90.3399 104.269 88.9059 102.5 88.9059H61.5C59.7309 88.9059 58.2969 90.3399 58.2969 92.109V97.8746H105.703Z" fill="#FED402"/>
<path d="M71.1094 97.8746V92.109C71.1094 90.3399 72.5434 88.9059 74.3125 88.9059H61.5C59.7309 88.9059 58.2969 90.3399 58.2969 92.109V97.8746H71.1094Z" fill="#FAC600"/>
<path d="M155.992 137.911H8.00781C3.58526 137.911 0 134.326 0 129.904V105.562C0 101.14 3.58526 97.5543 8.00781 97.5543H155.992C160.415 97.5543 164 101.14 164 105.562V129.904C164 134.326 160.415 137.911 155.992 137.911Z" fill="#FE5694"/>
<path d="M17.9375 129.904V105.562C17.9375 101.14 21.5228 97.5543 25.9453 97.5543H8.00781C3.58526 97.5543 0 101.14 0 105.562V129.904C0 134.327 3.58526 137.912 8.00781 137.912H25.9453C21.5228 137.911 17.9375 134.326 17.9375 129.904Z" fill="#FD3581"/>
<path d="M12.7039 126.668C11.0807 126.668 9.66802 126.331 8.46591 125.657C7.2638 124.976 6.33351 124.015 5.67502 122.774C5.0242 121.526 4.69879 120.053 4.69879 118.353V117.79C4.69879 116.167 5.01272 114.731 5.64057 113.483C6.27608 112.227 7.17958 111.243 8.35106 110.531C9.52254 109.819 10.9161 109.463 12.5316 109.463C13.6648 109.463 14.7253 109.624 15.713 109.946C16.7084 110.267 17.5966 110.757 18.3776 111.416V115.458H15.8853L15.5407 112.92C15.2881 112.736 15.0124 112.58 14.7138 112.449C14.4152 112.319 14.0898 112.22 13.7376 112.151C13.393 112.082 13.0178 112.047 12.612 112.047C11.6626 112.047 10.8472 112.281 10.1657 112.748C9.48426 113.215 8.95977 113.877 8.59225 114.735C8.23238 115.585 8.05245 116.595 8.05245 117.767V118.353C8.05245 119.524 8.24387 120.539 8.6267 121.396C9.00954 122.254 9.55317 122.92 10.2576 123.395C10.962 123.862 11.7966 124.095 12.7613 124.095C13.2437 124.095 13.7261 124.042 14.2085 123.934C14.6985 123.82 15.1426 123.674 15.5407 123.498L15.8853 121.144H18.3776V125.14C17.7268 125.569 16.9151 125.933 15.9427 126.232C14.9703 126.522 13.8907 126.668 12.7039 126.668ZM19.9281 126.427V124.417L21.7083 124.072V112.07L19.9281 111.726V109.704H26.8536V111.726L25.0619 112.07V116.894H31.8841V112.07L30.0924 111.726V109.704H31.8841H35.2263H37.0179V111.726L35.2263 112.07V124.072L37.0179 124.417V126.427H30.0924V124.417L31.8841 124.072V119.478H25.0619V124.072L26.8536 124.417V126.427H19.9281ZM46.5736 126.668C45.2489 126.668 44.0813 126.438 43.0706 125.979C42.0676 125.519 41.2866 124.853 40.7276 123.98C40.1687 123.108 39.8892 122.047 39.8892 120.799V112.07L38.109 111.726V109.704H45.0346V111.726L43.2429 112.07V120.799C43.2429 121.534 43.3769 122.147 43.6449 122.637C43.9128 123.127 44.2957 123.494 44.7934 123.739C45.2911 123.977 45.8845 124.095 46.5736 124.095C47.278 124.095 47.879 123.977 48.3767 123.739C48.8821 123.494 49.2687 123.127 49.5367 122.637C49.8047 122.147 49.9387 121.534 49.9387 120.799V112.07L48.1585 111.726V109.704H55.084V111.726L53.2924 112.07V120.799C53.2924 122.047 53.0091 123.111 52.4425 123.992C51.8835 124.865 51.0987 125.531 50.088 125.99C49.085 126.442 47.9135 126.668 46.5736 126.668ZM44.5866 108.407L46.8722 105.271H50.4211L50.4441 105.34L47.2742 108.407H44.6785H44.5866ZM64.1343 126.668C62.5111 126.668 61.0984 126.331 59.8963 125.657C58.6942 124.976 57.7639 124.015 57.1054 122.774C56.4546 121.526 56.1292 120.053 56.1292 118.353V117.79C56.1292 116.167 56.4431 114.731 57.071 113.483C57.7065 112.227 58.61 111.243 59.7815 110.531C60.9529 109.819 62.3465 109.463 63.962 109.463C65.0952 109.463 66.1557 109.624 67.1434 109.946C68.1388 110.267 69.027 110.757 69.808 111.416V115.458H67.3157L66.9712 112.92C66.7185 112.736 66.4428 112.58 66.1442 112.449C65.8456 112.319 65.5202 112.22 65.168 112.151C64.8234 112.082 64.4483 112.047 64.0424 112.047C63.093 112.047 62.2776 112.281 61.5961 112.748C60.9147 113.215 60.3902 113.877 60.0226 114.735C59.6628 115.585 59.4828 116.595 59.4828 117.767V118.353C59.4828 119.524 59.6743 120.539 60.0571 121.396C60.4399 122.254 60.9836 122.92 61.688 123.395C62.3924 123.862 63.227 124.095 64.1917 124.095C64.6741 124.095 65.1565 124.042 65.6389 123.934C66.1289 123.82 66.573 123.674 66.9712 123.498L67.3157 121.144H69.808V125.14C69.1572 125.569 68.3455 125.933 67.3731 126.232C66.4007 126.522 65.3211 126.668 64.1343 126.668ZM77.124 126.427V124.417L78.9042 124.072V112.07L77.124 111.726V109.704H78.9042H83.8658L88.4254 121.362H88.4943L92.9046 109.704H99.6578V111.726L97.8661 112.07V124.072L99.6578 124.417V126.427H92.7323V124.417L94.6044 124.072V120.868L94.6618 113.322L94.5929 113.311L89.5969 126.197H87.0586L81.9478 113.414L81.8788 113.426L82.0741 120.523V124.072L84.0495 124.417V126.427H77.124ZM109.133 126.668C107.801 126.668 106.629 126.442 105.619 125.99C104.616 125.531 103.835 124.865 103.276 123.992C102.717 123.111 102.437 122.047 102.437 120.799V112.07L100.657 111.726V109.704H107.583V111.726L105.802 112.07V120.799C105.802 121.534 105.936 122.147 106.204 122.637C106.472 123.127 106.855 123.494 107.353 123.739C107.851 123.977 108.444 124.095 109.133 124.095C109.83 124.095 110.427 123.977 110.925 123.739C111.43 123.494 111.817 123.127 112.085 122.637C112.353 122.147 112.487 121.534 112.487 120.799V112.07L110.707 111.726V109.704H115.863V120.799C115.863 122.047 115.58 123.111 115.013 123.992C114.447 124.865 113.658 125.531 112.648 125.99C111.637 126.442 110.465 126.668 109.133 126.668ZM115.496 114.7L115.553 112.576C116.418 112.599 116.989 112.35 117.265 111.829C117.54 111.309 117.678 110.462 117.678 109.291H120.366V109.348C120.388 111.102 120.032 112.426 119.297 113.322C118.562 114.21 117.295 114.67 115.496 114.7ZM111.143 108.407H111.051H108.455L105.286 105.34L105.309 105.271H108.857L111.143 108.407ZM121.227 126.427V124.417L123.007 124.072V112.07L121.227 111.726V109.704H123.007H126.407L133.688 121.304L133.757 121.293V112.07L131.621 111.726V109.704H136.755H138.546V111.726L136.755 112.07V126.427H133.516L126.074 114.942L126.005 114.953V124.072L128.152 124.417V126.427H121.227ZM147.424 126.668C145.763 126.668 144.346 126.323 143.175 125.634C142.003 124.945 141.104 123.988 140.476 122.763C139.856 121.538 139.546 120.118 139.546 118.502V117.928C139.546 116.259 139.856 114.788 140.476 113.517C141.096 112.246 141.973 111.255 143.106 110.543C144.247 109.823 145.595 109.463 147.149 109.463C148.351 109.463 149.48 109.628 150.537 109.957C151.594 110.286 152.512 110.78 153.293 111.439V115.148H150.813L150.342 112.909C150.043 112.648 149.641 112.442 149.136 112.289C148.63 112.128 148.052 112.047 147.402 112.047C146.467 112.047 145.66 112.296 144.978 112.794C144.304 113.284 143.788 113.969 143.428 114.85C143.068 115.723 142.888 116.741 142.888 117.905V118.502C142.888 119.635 143.064 120.623 143.416 121.465C143.776 122.3 144.301 122.947 144.99 123.406C145.679 123.866 146.525 124.095 147.528 124.095C148.117 124.095 148.657 124.042 149.147 123.934C149.645 123.82 150.055 123.682 150.376 123.521V120.684L147.987 120.5V118.146H153.741V124.911C152.999 125.439 152.103 125.864 151.054 126.186C150.012 126.507 148.803 126.668 147.424 126.668ZM156.153 120.661V109.704H159.507V120.661H156.153ZM156.153 126.427V123.487H159.507V126.427H156.153Z" fill="white"/>
<path d="M132.141 37.8411L136.141 45.9459C136.374 46.4187 136.825 46.7467 137.347 46.8223L146.291 48.1221C147.606 48.313 148.13 49.928 147.179 50.855L140.707 57.1639C140.329 57.5319 140.157 58.0624 140.246 58.5819L141.774 67.4901C141.999 68.7989 140.625 69.797 139.449 69.1791L131.449 64.9731C130.982 64.7278 130.425 64.7278 129.958 64.9731L121.958 69.1791C120.782 69.797 119.409 68.7989 119.633 67.4901L121.161 58.5819C121.25 58.0621 121.078 57.5319 120.7 57.1639L114.228 50.855C113.277 49.928 113.802 48.313 115.116 48.1221L124.06 46.8223C124.582 46.7464 125.033 46.4187 125.266 45.9459L129.267 37.8411C129.855 36.6501 131.553 36.6501 132.141 37.8411Z" fill="#05E39C"/>
<path d="M128.583 64.4449L130.111 55.5367C130.2 55.0168 130.028 54.4867 129.65 54.1187L123.178 47.8098C122.939 47.5773 122.794 47.3015 122.73 47.0158L115.116 48.1221C113.802 48.313 113.277 49.928 114.228 50.855L120.7 57.1639C121.078 57.5319 121.25 58.0624 121.161 58.5822L119.633 67.4905C119.408 68.7993 120.782 69.7973 121.958 69.1795L128.811 65.5766C128.608 65.2614 128.51 64.8703 128.583 64.4449Z" fill="#0ED290"/>
<path d="M45.7552 63.5727L48.6576 69.4533C48.827 69.7964 49.1544 70.0343 49.533 70.0891L56.0225 71.0321C56.9761 71.1708 57.3566 72.3425 56.6667 73.0149L51.9706 77.5924C51.6967 77.8596 51.5715 78.2443 51.6362 78.6213L52.7448 85.0849C52.9075 86.0346 51.911 86.7588 51.058 86.3104L45.2536 83.2588C44.915 83.0807 44.5105 83.0807 44.1716 83.2588L38.3672 86.3104C37.5142 86.7588 36.5177 86.0346 36.6805 85.0849L37.7891 78.6213C37.8538 78.2443 37.7288 77.8593 37.4547 77.5924L32.7586 73.0149C32.0686 72.3422 32.4494 71.1705 33.4027 71.0321L39.8922 70.0891C40.2708 70.034 40.5982 69.7964 40.7676 69.4533L43.67 63.5727C44.0967 62.7085 45.3289 62.7085 45.7552 63.5727Z" fill="#FEA613"/>
<path d="M43.1742 82.8754L44.2828 76.4118C44.3475 76.0348 44.2226 75.6501 43.9484 75.383L39.2523 70.8054C39.0794 70.6366 38.9736 70.4367 38.9275 70.2291L33.4028 71.0318C32.4492 71.1705 32.0687 72.3422 32.7586 73.0146L37.4547 77.5918C37.7286 77.859 37.8538 78.2437 37.7891 78.621L36.6805 85.0843C36.5178 86.034 37.5143 86.7582 38.3673 86.3098L43.3395 83.6957C43.1922 83.4676 43.1211 83.1838 43.1742 82.8754Z" fill="#FE9901"/>
<path d="M24.3234 15.4922L27.2168 21.3549C27.3856 21.697 27.712 21.934 28.0893 21.9888L34.5593 22.9289C35.51 23.067 35.8896 24.2351 35.2016 24.9056L30.5202 29.4694C30.247 29.7356 30.1224 30.1193 30.1867 30.4953L31.2918 36.9391C31.4542 37.8859 30.4606 38.6079 29.6102 38.1607L23.8234 35.1184C23.4858 34.941 23.0825 34.941 22.7449 35.1184L16.9582 38.1607C16.1081 38.6076 15.1141 37.8859 15.2765 36.9391L16.3816 30.4953C16.446 30.1193 16.3214 29.7359 16.0482 29.4694L11.3668 24.9059C10.6791 24.2355 11.0586 23.0673 12.009 22.9292L18.479 21.9891C18.8563 21.9343 19.1827 21.6973 19.3515 21.3552L22.2449 15.4925C22.67 14.6309 23.8984 14.6309 24.3234 15.4922Z" fill="#FE5694"/>
<path d="M21.7509 34.7363L22.856 28.2926C22.9204 27.9165 22.7958 27.5331 22.5225 27.2669L17.8408 22.7031C17.6682 22.535 17.5631 22.3354 17.517 22.1288L12.0092 22.9293C11.0585 23.0673 10.679 24.2355 11.367 24.9059L16.0487 29.4694C16.3219 29.7356 16.4465 30.1193 16.3818 30.4954L15.2767 36.9391C15.1143 37.8859 16.1083 38.6079 16.9584 38.1608L21.9155 35.5547C21.7685 35.327 21.698 35.0438 21.7509 34.7363Z" fill="#FD3581"/>
<path d="M81.9961 41.1793C88.63 41.1793 94.0078 35.8015 94.0078 29.1676C94.0078 22.5337 88.63 17.1559 81.9961 17.1559C75.3622 17.1559 69.9844 22.5337 69.9844 29.1676C69.9844 35.8015 75.3622 41.1793 81.9961 41.1793Z" fill="#FED402"/>
<path d="M77.832 29.1676C77.832 23.9084 81.2136 19.4416 85.9199 17.8151C84.6899 17.39 83.3706 17.1559 81.9961 17.1559C75.3621 17.1559 69.9844 22.5336 69.9844 29.1676C69.9844 35.8016 75.3621 41.1793 81.9961 41.1793C83.3706 41.1793 84.6899 40.9455 85.9199 40.5201C81.2136 38.8936 77.832 34.4268 77.832 29.1676Z" fill="#FAC600"/>
<path d="M91.4531 83.1403H72.5547C71.6703 83.1403 70.9531 82.4231 70.9531 81.5387V72.8903C70.9531 72.0059 71.6703 71.2887 72.5547 71.2887H91.4531C92.3375 71.2887 93.0547 72.0059 93.0547 72.8903V81.5387C93.0547 82.4231 92.3375 83.1403 91.4531 83.1403Z" fill="white"/>
<path d="M78.8008 81.5387V72.8903C78.8008 72.0059 79.518 71.2887 80.4023 71.2887H72.5547C71.6703 71.2887 70.9531 72.0059 70.9531 72.8903V81.5387C70.9531 82.4231 71.6703 83.1403 72.5547 83.1403H80.4023C79.518 83.1403 78.8008 82.4231 78.8008 81.5387Z" fill="#EAF6FF"/>
<path d="M31.0707 56.5428C27.5005 57.8417 25.9476 59.3946 24.6488 62.9648C24.3403 63.813 23.1481 63.813 22.8393 62.9648C21.5405 59.3946 19.9876 57.8417 16.4174 56.5428C15.5692 56.2344 15.5692 55.0422 16.4174 54.7334C19.9876 53.4345 21.5405 51.8817 22.8393 48.3114C23.1478 47.4633 24.34 47.4633 24.6488 48.3114C25.9476 51.8817 27.5005 53.4345 31.0707 54.7334C31.9189 55.0422 31.9189 56.2344 31.0707 56.5428Z" fill="white"/>
<path d="M25.6321 60.3126C24.3333 56.7424 22.7804 55.1895 19.2102 53.8906C19.0513 53.833 18.9222 53.7439 18.8229 53.636C18.1362 54.0396 17.3463 54.3958 16.4174 54.7337C15.5692 55.0422 15.5692 56.2344 16.4174 56.5428C19.9876 57.8417 21.5405 59.3946 22.8393 62.9648C23.1481 63.813 24.34 63.813 24.6488 62.9648C24.9893 62.0291 25.3483 61.2348 25.7555 60.5445C25.7068 60.4753 25.6639 60.3994 25.6321 60.3126Z" fill="#EAF6FF"/>
<path d="M144.789 26.0234C141.219 27.3223 139.666 28.8751 138.368 32.4453C138.059 33.2935 136.867 33.2935 136.558 32.4453C135.259 28.8751 133.706 27.3223 130.136 26.0234C129.288 25.7149 129.288 24.5227 130.136 24.214C133.706 22.9151 135.259 21.3622 136.558 17.792C136.867 16.9438 138.059 16.9438 138.368 17.792C139.666 21.3622 141.219 22.9151 144.789 24.214C145.638 24.5227 145.638 25.7146 144.789 26.0234Z" fill="#FEE45A"/>
<path d="M139.351 29.7931C138.052 26.2229 136.499 24.67 132.929 23.3712C132.77 23.3135 132.641 23.2245 132.542 23.1165C131.855 23.5201 131.065 23.8763 130.136 24.2142C129.288 24.5227 129.288 25.7149 130.136 26.0234C133.706 27.3222 135.259 28.8751 136.558 32.4453C136.867 33.2935 138.059 33.2935 138.368 32.4453C138.708 31.5097 139.067 30.7153 139.474 30.025C139.426 29.9558 139.383 29.8799 139.351 29.7931Z" fill="#FED402"/>
<path d="M129.321 84.6406C125.751 85.9395 124.198 87.4923 122.899 91.0625C122.59 91.9107 121.398 91.9107 121.089 91.0625C119.79 87.4923 118.238 85.9395 114.667 84.6406C113.819 84.3318 113.819 83.1399 114.667 82.8312C118.238 81.5323 119.79 79.9794 121.089 76.4092C121.398 75.561 122.59 75.561 122.899 76.4092C124.198 79.9794 125.751 81.5323 129.321 82.8312C130.169 83.1399 130.169 84.3318 129.321 84.6406Z" fill="white"/>
<path d="M123.882 88.4103C122.583 84.8401 121.03 83.2873 117.46 81.9884C117.301 81.9307 117.172 81.8417 117.073 81.7337C116.386 82.1373 115.596 82.4935 114.667 82.8315C113.819 83.1399 113.819 84.3321 114.667 84.6406C118.238 85.9394 119.79 87.4923 121.089 91.0625C121.398 91.9107 122.59 91.9107 122.899 91.0625C123.239 90.1269 123.598 89.3325 124.005 88.6422C123.957 88.5731 123.914 88.4971 123.882 88.4103Z" fill="#EAF6FF"/>
</g>
<defs>
<clipPath id="clip0_1003_18294">
<rect width="164" height="164" fill="white"/>
</clipPath>
</defs>
</svg>
